module setia-abadi-printer

go 1.17

require (
	github.com/alexbrainman/printer v0.0.0-20200912035444-f40f26f0bdeb
	github.com/ghodss/yaml v1.0.0
	github.com/gin-contrib/cors v1.4.0
	github.com/gin-gonic/gin v1.8.2
	github.com/go-openapi/spec v0.20.8
	github.com/go-playground/locales v0.14.0
	github.com/go-playground/universal-translator v0.18.0
	github.com/go-playground/validator/v10 v10.11.1
	github.com/iancoleman/strcase v0.2.0
	github.com/swaggo/swag v1.8.9
	github.com/urfave/cli/v2 v2.23.7
	golang.org/x/sys v0.3.0
	golang.org/x/text v0.5.0
)

require (
	github.com/KyleBanks/depth v1.2.1 // indirect
	github.com/cpuguy83/go-md2man/v2 v2.0.2 // indirect
	github.com/gin-contrib/sse v0.1.0 // indirect
	github.com/go-openapi/jsonpointer v0.19.5 // indirect
	github.com/go-openapi/jsonreference v0.20.0 // indirect
	github.com/go-openapi/swag v0.19.15 // indirect
	github.com/goccy/go-json v0.9.11 // indirect
	github.com/josharian/intern v1.0.0 // indirect
	github.com/json-iterator/go v1.1.12 // indirect
	github.com/leodido/go-urn v1.2.1 // indirect
	github.com/mailru/easyjson v0.7.6 // indirect
	github.com/mattn/go-isatty v0.0.16 // indirect
	github.com/modern-go/concurrent v0.0.0-20180228061459-e0a39a4cb421 // indirect
	github.com/modern-go/reflect2 v1.0.2 // indirect
	github.com/pelletier/go-toml/v2 v2.0.6 // indirect
	github.com/russross/blackfriday/v2 v2.1.0 // indirect
	github.com/ugorji/go/codec v1.2.7 // indirect
	github.com/xrash/smetrics v0.0.0-20201216005158-039620a65673 // indirect
	golang.org/x/crypto v0.0.0-20211215153901-e495a2d5b3d3 // indirect
	golang.org/x/net v0.4.0 // indirect
	golang.org/x/tools v0.1.12 // indirect
	golang.org/x/xerrors v0.0.0-20200804184101-5ec99f83aff1 // indirect
	google.golang.org/protobuf v1.28.1 // indirect
	gopkg.in/yaml.v2 v2.4.0 // indirect
)
